                                     /@
                     __        __   /\/
                    /==\      /  \_/\/
                  /======\    \/\__ \__           VIDEO GAMES:Zelda
                /==/\  /\==\    /\_|__ \
             /==/    ||    \=\ / / / /_/
           /=/    /\ || /\   \=\/ /
        /===/   /   \||/   \   \===\
      /===/   /_________________ \===\
   /====/   / |                /  \====\
 /====/   /   |  _________    /  \   \===\    THE LEGEND OF
 /==/   /     | /   /  \ / / /  __________\_____      ______       ___
|===| /       |/   /____/ / /   \   _____ |\   /      \   _ \      \  \
 \==\             /\   / / /     | |  /= \| | |        | | \ \     / _ \
 \===\__    \    /  \ / / /   /  | | /===/  | |        | |  \ \   / / \ \
   \==\ \    \\ /____/   /_\ //  | |_____/| | |        | |   | | / /___\ \
   \===\ \   \\\\\\\/   /////// /|  _____ | | |        | |   | | |  ___  |
     \==\/     \\\\/ / //////   \| |/==/ \| | |        | |   | | | /   \ |
     \==\     _ \\/ / /////    _ | |==/     | |        | |  / /  | |   | |
       \==\  / \ / / ///      /|\| |_____/| | |_____/| | |_/ /   | |   | |
       \==\ /   / / /________/ |/_________|/_________|/_____/   /___\ /___\
         \==\  /               | /==/
         \=\  /________________|/=/    OCARINA OF TIME
           \==\     _____     /==/
          / \===\   \   /   /===/
         / / /\===\  \_/  /===/
        / / /   \====\ /====/
       / / /      \===|===/
       |/_/         \===/
                      =